%YAML 1.1
%TAG !u! tag:unity3d.com,2011:
--- !u!21 &2100000
Material:
  serializedVersion: 6
  m_ObjectHideFlags: 0
  m_CorrespondingSourceObject: {fileID: 0}
  m_PrefabInstance: {fileID: 0}
  m_PrefabAsset: {fileID: 0}
  m_Name: Poste
  m_Shader: {fileID: -6465566751694194690, guid: 8d27816ef5183934681bbaa2ef4e01c5,
    type: 3}
  m_ShaderKeywords: 
  m_LightmapFlags: 4
  m_EnableInstancingVariants: 0
  m_DoubleSidedGI: 0
  m_CustomRenderQueue: -1
  stringTagMap: {}
  disabledShaderPasses: []
  m_SavedProperties:
    serializedVersion: 3
    m_TexEnvs:
    - Texture2D_23025833:
        m_Texture: {fileID: 2800000, guid: 44cced520ecfd9f4292979a4fe8268c4, type: 3}
        m_Scale: {x: 1, y: 1}
        m_Offset: {x: 0, y: 0}
    - _MainTex:
        m_Texture: {fileID: 2800000, guid: 73437fb6a4cad834c8c5f494a63e225f, type: 3}
        m_Scale: {x: 1, y: 1}
        m_Offset: {x: 0, y: 0}
    m_Floats:
    - Boolean_85B0FE71: 0
    - Vector1_18FD0A2F: 8.4
    - Vector1_22FC3A79: 0
    - Vector1_2C309E9D: 0
    - Vector1_3D6D2E56: 0
    - Vector1_4CBB60A6: 3.1
    - Vector1_5F5AB344: -0.77
    - Vector1_6F352710: 0
    - Vector1_ABC2836C: 0
    - Vector1_B7AB1846: 0
    - _AlphaThreshold: 0.5
    - _DisplacementAmount: 0
    - _DissolveEdgeWidth: 1
    - _MaskNoisePow: 20
    - _MaskNoiseScale: 20
    - _MaskNoiseSpeed: 0.01
    - _NoisePow: 56.35
    - _NoiseScale: 50
    - _NoiseSpeed: 0.005
    - _OutlineWidth: 0
    - _Power: 0
    - _SphereRadius: 2.5
    - _SphereSoftness: 0.01
    - _WorldSpace: 1
    m_Colors:
    - Vector3_2D397382: {r: 0, g: 0, b: 0, a: 0}
    - Vector4_2C67CFD9: {r: 0, g: 0, b: 0, a: 0}
    - Vector4_5493DE38: {r: 0, g: 0, b: 0, a: 0}
    - _DissolveEdgeColor: {r: 8, g: 8, b: 8, a: 1}
    - _OutlineColor: {r: 0, g: 0, b: 0, a: 0}
    - _WorldPos: {r: 21.539766, g: 16.006, b: 29.767244, a: 0}
