%YAML 1.1
%TAG !u! tag:unity3d.com,2011:
--- !u!21 &2100000
Material:
  serializedVersion: 6
  m_ObjectHideFlags: 0
  m_CorrespondingSourceObject: {fileID: 0}
  m_PrefabInstance: {fileID: 0}
  m_PrefabAsset: {fileID: 0}
  m_Name: UncoloredBlack
  m_Shader: {fileID: -6465566751694194690, guid: 2c255679a9da4494aa4222e37785ddd0,
    type: 3}
  m_ShaderKeywords: 
  m_LightmapFlags: 4
  m_EnableInstancingVariants: 1
  m_DoubleSidedGI: 0
  m_CustomRenderQueue: -1
  stringTagMap: {}
  disabledShaderPasses: []
  m_SavedProperties:
    serializedVersion: 3
    m_TexEnvs: []
    m_Floats:
    - Boolean_5B7E6382: 1
    - Vector1_18DDC4D0: 2.5
    - Vector1_2C861162: 0.01
    - Vector1_46A10C28: 5
    - Vector1_4D39DC97: 20
    - Vector1_7FEC726E: 0
    - Vector1_924ACC93: 0.01
    - Vector1_AF9B52AE: 20
    - _UncoloredRadius: 0
    - _WorldSpace: 1
    m_Colors:
    - Color_387158FB: {r: 1, g: 1, b: 1, a: 0}
    - Vector4_8270A3A5: {r: 0, g: 0, b: 0, a: 0}
    - _Color: {r: 0, g: 0, b: 0, a: 0}
