%YAML 1.1
%TAG !u! tag:unity3d.com,2011:
--- !u!1 &871901321080770578
GameObject:
  m_ObjectHideFlags: 0
  m_CorrespondingSourceObject: {fileID: 0}
  m_PrefabInstance: {fileID: 0}
  m_PrefabAsset: {fileID: 0}
  serializedVersion: 6
  m_Component:
  - component: {fileID: 871901321080409138}
  - component: {fileID: 871901321077541904}
  - component: {fileID: 871901321078509264}
  m_Layer: 0
  m_Name: Bota
  m_TagString: Untagged
  m_Icon: {fileID: 0}
  m_NavMeshLayer: 0
  m_StaticEditorFlags: 0
  m_IsActive: 1
--- !u!4 &871901321080409138
Transform:
  m_ObjectHideFlags: 0
  m_CorrespondingSourceObject: {fileID: 0}
  m_PrefabInstance: {fileID: 0}
  m_PrefabAsset: {fileID: 0}
  m_GameObject: {fileID: 871901321080770578}
  m_LocalRotation: {x: -0.23756637, y: 0.8253676, z: -0.49984738, w: -0.11172777}
  m_LocalPosition: {x: 2.8719225, y: 1.1889151, z: 0.15992999}
  m_LocalScale: {x: 4.170101, y: 4.1701, z: 4.1701}
  m_Children: []
  m_Father: {fileID: 0}
  m_RootOrder: 0
  m_LocalEulerAnglesHint: {x: 61.426003, y: -546.369, z: -35.901}
--- !u!33 &871901321077541904
MeshFilter:
  m_ObjectHideFlags: 0
  m_CorrespondingSourceObject: {fileID: 0}
  m_PrefabInstance: {fileID: 0}
  m_PrefabAsset: {fileID: 0}
  m_GameObject: {fileID: 871901321080770578}
  m_Mesh: {fileID: 4300004, guid: 7aebe817e93efbb4eb03249bc0b4c3fa, type: 3}
--- !u!23 &871901321078509264
MeshRenderer:
  m_ObjectHideFlags: 0
  m_CorrespondingSourceObject: {fileID: 0}
  m_PrefabInstance: {fileID: 0}
  m_PrefabAsset: {fileID: 0}
  m_GameObject: {fileID: 871901321080770578}
  m_Enabled: 1
  m_CastShadows: 1
  m_ReceiveShadows: 1
  m_DynamicOccludee: 1
  m_MotionVectors: 1
  m_LightProbeUsage: 1
  m_ReflectionProbeUsage: 1
  m_RenderingLayerMask: 1
  m_RendererPriority: 0
  m_Materials:
  - {fileID: 2100000, guid: dc4652c5c3517be4d8ce48c1ad6aa49d, type: 2}
  - {fileID: 2100000, guid: 10fdf79d7700bad48bfc5ed8ee26a32e, type: 2}
  - {fileID: 2100000, guid: 56ed0abc64a224c49b571be8d53d5cf2, type: 2}
  m_StaticBatchInfo:
    firstSubMesh: 0
    subMeshCount: 0
  m_StaticBatchRoot: {fileID: 0}
  m_ProbeAnchor: {fileID: 0}
  m_LightProbeVolumeOverride: {fileID: 0}
  m_ScaleInLightmap: 1
  m_PreserveUVs: 0
  m_IgnoreNormalsForChartDetection: 0
  m_ImportantGI: 0
  m_StitchLightmapSeams: 0
  m_SelectedEditorRenderState: 3
  m_MinimumChartSize: 4
  m_AutoUVMaxDistance: 0.5
  m_AutoUVMaxAngle: 89
  m_LightmapParameters: {fileID: 0}
  m_SortingLayerID: 0
  m_SortingLayer: 0
  m_SortingOrder: 0
